{
    "name": "GunRunner",
    "rootNamespace": "",
    "references": [
        "GUID:77221876cc6b8244180b96e320b1bcd4",
        "GUID:75469ad4d38634e559750d17036d5f7c",
        "GUID:23eed6c2401dca1419d1ebd180e58c5a",
        "GUID:3b570a5146f9d4f0fa107ed4559471a3",
        "GUID:d8b63aba1907145bea998dd612889d6b",
        "GUID:f51ebe6a0ceec4240a699833d6309b23",
        "GUID:776d03a35f1b52c4a9aed9f56d7b4229"
    ],
    "includePlatforms": [],
    "excludePlatforms": [],
    "allowUnsafeCode": false,
    "overrideReferences": false,
    "precompiledReferences": [],
    "autoReferenced": true,
    "defineConstraints": [],
    "versionDefines": [],
    "noEngineReferences": false
}